%pythonappend OpenMM::Platform::registerPlatform(Platform * platform) %{
   platform.thisown=0
%}

%pythonappend OpenMM::AmoebaPiTorsionForce::getPiTorsionParameters(int index, int & particle1, int & particle2, int & particle3, int & particle4, int & particle5, int & particle6, double & k) const %{
   val[6]=unit.Quantity(val[6], unit.kilojoule_per_mole)
%}

%pythonappend OpenMM::AmoebaGeneralizedKirkwoodForce::getParticleParameters(int index, double & charge, double & radius, double & scalingFactor) const %{
   val[0]=unit.Quantity(val[0], unit.elementary_charge)
   val[1]=unit.Quantity(val[1], unit.nanometer)
%}

%pythonappend OpenMM::AmoebaGeneralizedKirkwoodForce::getProbeRadius() const %{
   val=unit.Quantity(val, unit.nanometer)
%}

%pythonappend OpenMM::AmoebaGeneralizedKirkwoodForce::getSurfaceAreaFactor() const %{
   val=unit.Quantity(val, unit.kilojoule_per_mole/(unit.nanometer*unit.nanometer))
%}

%pythonappend OpenMM::Integrator::getStepSize() const %{
   val=unit.Quantity(val, unit.picosecond)
%}

%pythonappend OpenMM::LangevinIntegrator::getTemperature() const %{
   val=unit.Quantity(val, unit.kelvin)
%}

%pythonappend OpenMM::LangevinIntegrator::getFriction() const %{
   val=unit.Quantity(val, 1/unit.picosecond)
%}

%pythonappend OpenMM::AmoebaBondForce::getAmoebaGlobalBondCubic() const %{
   val=unit.Quantity(val, 1/unit.nanometer)
%}

%pythonappend OpenMM::AmoebaBondForce::getAmoebaGlobalBondQuartic() const %{
   val=unit.Quantity(val, 1/unit.nanometer**2)
%}

%pythonappend OpenMM::AmoebaBondForce::getBondParameters(int index, int & particle1, int & particle2, double & length, double & quadraticK) const %{
   val[2]=unit.Quantity(val[2], unit.nanometer)
   val[3]=unit.Quantity(val[3], unit.kilojoule_per_mole/(unit.nanometer*unit.nanometer))
%}

%pythonappend OpenMM::CustomNonbondedForce::getCutoffDistance() const %{
   val=unit.Quantity(val, unit.nanometers)
%}

%pythonappend OpenMM::CustomNonbondedForce::getSwitchingDistance() const %{
   val=unit.Quantity(val, unit.nanometers)
%}

%pythonappend OpenMM::CustomNonbondedForce::addTabulatedFunction(const std::string & name, TabulatedFunction * function) %{
   function.thisown=0
%}

%pythonappend OpenMM::AmoebaWcaDispersionForce::getParticleParameters(int particleIndex, double & radius, double & epsilon) const %{
   val[0]=unit.Quantity(val[0], unit.nanometer)
   val[1]=unit.Quantity(val[1], unit.kilojoule_per_mole)
%}

%pythonappend OpenMM::AmoebaWcaDispersionForce::getEpso() const %{
   val=unit.Quantity(val, unit.kilojoule_per_mole)
%}

%pythonappend OpenMM::AmoebaWcaDispersionForce::getEpsh() const %{
   val=unit.Quantity(val, unit.kilojoule_per_mole)
%}

%pythonappend OpenMM::AmoebaWcaDispersionForce::getRmino() const %{
   val=unit.Quantity(val, unit.nanometer)
%}

%pythonappend OpenMM::AmoebaWcaDispersionForce::getRminh() const %{
   val=unit.Quantity(val, unit.nanometer)
%}

%pythonappend OpenMM::AmoebaWcaDispersionForce::getAwater() const %{
   val=unit.Quantity(val, 1/(unit.nanometer*unit.nanometer*unit.nanometer))
%}

%pythonappend OpenMM::AmoebaWcaDispersionForce::getDispoff() const %{
   val=unit.Quantity(val, unit.nanometer)
%}

%pythonappend OpenMM::AmoebaOutOfPlaneBendForce::getAmoebaGlobalOutOfPlaneBendCubic() const %{
   val=unit.Quantity(val, 1/unit.radian)
%}

%pythonappend OpenMM::AmoebaOutOfPlaneBendForce::getAmoebaGlobalOutOfPlaneBendQuartic() const %{
   val=unit.Quantity(val, 1/unit.radian**2)
%}

%pythonappend OpenMM::AmoebaOutOfPlaneBendForce::getAmoebaGlobalOutOfPlaneBendPentic() const %{
   val=unit.Quantity(val, 1/unit.radian**3)
%}

%pythonappend OpenMM::AmoebaOutOfPlaneBendForce::getAmoebaGlobalOutOfPlaneBendSextic() const %{
   val=unit.Quantity(val, 1/unit.radian**4)
%}

%pythonappend OpenMM::AmoebaOutOfPlaneBendForce::getOutOfPlaneBendParameters(int index, int & particle1, int & particle2, int & particle3, int & particle4, double & k) const %{
   val[4]=unit.Quantity(val[4], unit.kilojoule_per_mole/unit.radians**2)
%}

%pythonappend OpenMM::HarmonicBondForce::getBondParameters(int index, int & particle1, int & particle2, double & length, double & k) const %{
   val[2]=unit.Quantity(val[2], unit.nanometer)
   val[3]=unit.Quantity(val[3], unit.kilojoule_per_mole/(unit.nanometer*unit.nanometer))
%}

%pythonappend OpenMM::CompoundIntegrator::addIntegrator(Integrator * integrator) %{
   integrator.thisown=0
%}

%pythonappend OpenMM::CompoundIntegrator::getStepSize() const %{
   val=unit.Quantity(val, unit.picosecond)
%}

%pythonappend OpenMM::AndersenThermostat::getDefaultTemperature() const %{
   val=unit.Quantity(val, unit.kelvin)
%}

%pythonappend OpenMM::AndersenThermostat::getDefaultCollisionFrequency() const %{
   val=unit.Quantity(val, 1/unit.picosecond)
%}

%pythonappend OpenMM::HarmonicAngleForce::getAngleParameters(int index, int & particle1, int & particle2, int & particle3, double & angle, double & k) const %{
   val[3]=unit.Quantity(val[3], unit.radian)
   val[4]=unit.Quantity(val[4], unit.kilojoule_per_mole/(unit.radian*unit.radian))
%}

%pythonappend OpenMM::CMAPTorsionForce::getMapParameters(int index, int & size, std::vector< double > & energy) const %{
   val[1]=unit.Quantity(val[1], unit.kilojoule_per_mole)
%}

%pythonappend OpenMM::CustomCompoundBondForce::addTabulatedFunction(const std::string & name, TabulatedFunction * function) %{
   function.thisown=0
%}

%pythonappend OpenMM::AmoebaInPlaneAngleForce::getAmoebaGlobalInPlaneAngleCubic() const %{
   val=unit.Quantity(val, 1/unit.radian)
%}

%pythonappend OpenMM::AmoebaInPlaneAngleForce::getAmoebaGlobalInPlaneAngleQuartic() const %{
   val=unit.Quantity(val, 1/unit.radian**2)
%}

%pythonappend OpenMM::AmoebaInPlaneAngleForce::getAmoebaGlobalInPlaneAnglePentic() const %{
   val=unit.Quantity(val, 1/unit.radian**3)
%}

%pythonappend OpenMM::AmoebaInPlaneAngleForce::getAmoebaGlobalInPlaneAngleSextic() const %{
   val=unit.Quantity(val, 1/unit.radian**4)
%}

%pythonappend OpenMM::AmoebaInPlaneAngleForce::getAngleParameters(int index, int & particle1, int & particle2, int & particle3, int & particle4, double & length, double & quadraticK) const %{
   val[4]=unit.Quantity(val[4], unit.radian)
   val[5]=unit.Quantity(val[5], unit.kilojoule_per_mole/(unit.radian*unit.radian))
%}

%pythonappend OpenMM::System::getParticleMass(int index) const %{
   val=unit.Quantity(val, unit.amu)
%}

%pythonappend OpenMM::System::setVirtualSite(int index, VirtualSite * virtualSite) %{
   virtualSite.thisown=0
%}

%pythonappend OpenMM::System::getConstraintParameters(int index, int & particle1, int & particle2, double & distance) const %{
   val[2]=unit.Quantity(val[2], unit.nanometer)
%}

%pythonappend OpenMM::System::addForce(Force * force) %{
   force.thisown=0
%}

%pythonappend OpenMM::System::getDefaultPeriodicBoxVectors(Vec3 & a, Vec3 & b, Vec3 & c) const %{
   val[0]=unit.Quantity(val[0], unit.nanometer)
   val[1]=unit.Quantity(val[1], unit.nanometer)
   val[2]=unit.Quantity(val[2], unit.nanometer)
%}

%pythonappend OpenMM::BrownianIntegrator::getTemperature() const %{
   val=unit.Quantity(val, unit.kelvin)
%}

%pythonappend OpenMM::BrownianIntegrator::getFriction() const %{
   val=unit.Quantity(val, 1/unit.picosecond)
%}

%pythonappend OpenMM::AmoebaAngleForce::getAmoebaGlobalAngleCubic() const %{
   val=unit.Quantity(val, 1/unit.radian)
%}

%pythonappend OpenMM::AmoebaAngleForce::getAmoebaGlobalAngleQuartic() const %{
   val=unit.Quantity(val, 1/unit.radian**2)
%}

%pythonappend OpenMM::AmoebaAngleForce::getAmoebaGlobalAnglePentic() const %{
   val=unit.Quantity(val, 1/unit.radian**3)
%}

%pythonappend OpenMM::AmoebaAngleForce::getAmoebaGlobalAngleSextic() const %{
   val=unit.Quantity(val, 1/unit.radian**4)
%}

%pythonappend OpenMM::AmoebaAngleForce::getAngleParameters(int index, int & particle1, int & particle2, int & particle3, double & length, double & quadraticK) const %{
   val[3]=unit.Quantity(val[3], unit.degree)
   val[4]=unit.Quantity(val[4], unit.kilojoule_per_mole/(unit.radian*unit.radian))
%}

%pythonappend OpenMM::MonteCarloBarostat::getDefaultPressure() const %{
   val=unit.Quantity(val, unit.bar)
%}

%pythonappend OpenMM::MonteCarloBarostat::getTemperature() const %{
   val=unit.Quantity(val, unit.kelvin)
%}

%pythonappend OpenMM::CustomManyParticleForce::getCutoffDistance() const %{
   val=unit.Quantity(val, unit.nanometers)
%}

%pythonappend OpenMM::CustomManyParticleForce::addTabulatedFunction(const std::string & name, TabulatedFunction * function) %{
   function.thisown=0
%}

%pythonappend OpenMM::LocalCoordinatesSite::getLocalPosition() const %{
   val=unit.Quantity(val, unit.nanometer)
%}

%pythonappend OpenMM::MonteCarloMembraneBarostat::getDefaultPressure() const %{
   val=unit.Quantity(val, unit.bar)
%}

%pythonappend OpenMM::MonteCarloMembraneBarostat::getDefaultSurfaceTension() const %{
   val=unit.Quantity(val, unit.bar*unit.nanometer)
%}

%pythonappend OpenMM::MonteCarloMembraneBarostat::getTemperature() const %{
   val=unit.Quantity(val, unit.kelvin)
%}

%pythonappend OpenMM::DrudeSCFIntegrator::getMinimizationErrorTolerance() const %{
   val=unit.Quantity(val, unit.kilojoules_per_mole/unit.nanometer)
%}

%pythonappend OpenMM::CustomHbondForce::getCutoffDistance() const %{
   val=unit.Quantity(val, unit.nanometers)
%}

%pythonappend OpenMM::CustomHbondForce::addTabulatedFunction(const std::string & name, TabulatedFunction * function) %{
   function.thisown=0
%}

%pythonappend OpenMM::GBSAOBCForce::getParticleParameters(int index, double & charge, double & radius, double & scalingFactor) const %{
   val[0]=unit.Quantity(val[0], unit.elementary_charge)
   val[1]=unit.Quantity(val[1], unit.nanometer)
%}

%pythonappend OpenMM::GBSAOBCForce::getSurfaceAreaEnergy() const %{
   val=unit.Quantity(val, unit.kilojoule_per_mole/unit.nanometer/unit.nanometer)
%}

%pythonappend OpenMM::GBSAOBCForce::getCutoffDistance() const %{
   val=unit.Quantity(val, unit.nanometers)
%}

%pythonappend OpenMM::RPMDMonteCarloBarostat::getDefaultPressure() const %{
   val=unit.Quantity(val, unit.bar)
%}

%pythonappend OpenMM::RBTorsionForce::getTorsionParameters(int index, int & particle1, int & particle2, int & particle3, int & particle4, double & c0, double & c1, double & c2, double & c3, double & c4, double & c5) const %{
   val[4]=unit.Quantity(val[4], unit.kilojoules_per_mole)
   val[5]=unit.Quantity(val[5], unit.kilojoules_per_mole)
   val[6]=unit.Quantity(val[6], unit.kilojoules_per_mole)
   val[7]=unit.Quantity(val[7], unit.kilojoules_per_mole)
   val[8]=unit.Quantity(val[8], unit.kilojoules_per_mole)
   val[9]=unit.Quantity(val[9], unit.kilojoules_per_mole)
%}

%pythonappend OpenMM::PeriodicTorsionForce::getTorsionParameters(int index, int & particle1, int & particle2, int & particle3, int & particle4, int & periodicity, double & phase, double & k) const %{
   val[5]=unit.Quantity(val[5], unit.radian)
   val[6]=unit.Quantity(val[6], unit.kilojoule_per_mole)
%}

%pythonappend OpenMM::RPMDIntegrator::getTemperature() const %{
   val=unit.Quantity(val, unit.kelvin)
%}

%pythonappend OpenMM::RPMDIntegrator::getFriction() const %{
   val=unit.Quantity(val, 1/unit.picosecond)
%}

%pythonappend OpenMM::RPMDIntegrator::getTotalEnergy() %{
   val=unit.Quantity(val, unit.kilojoules_per_mole)
%}

%pythonappend OpenMM::AmoebaStretchBendForce::getStretchBendParameters(int index, int & particle1, int & particle2, int & particle3, double & lengthAB, double & lengthCB, double & angle, double & k1, double & k2) const %{
   val[3]=unit.Quantity(val[3], unit.nanometer)
   val[4]=unit.Quantity(val[4], unit.nanometer)
   val[5]=unit.Quantity(val[5], unit.radian)
   val[6]=unit.Quantity(val[6], unit.kilojoule_per_mole/unit.nanometer/unit.radian)
   val[7]=unit.Quantity(val[7], unit.kilojoule_per_mole/unit.nanometer/unit.radian)
%}

%pythonappend OpenMM::DrudeForce::getParticleParameters(int index, int & particle, int & particle1, int & particle2, int & particle3, int & particle4, double & charge, double & polarizability, double & aniso12, double & aniso34) const %{
   val[5]=unit.Quantity(val[5], unit.elementary_charge)
   val[6]=unit.Quantity(val[6], unit.nanometer**3)
%}

%pythonappend OpenMM::VariableLangevinIntegrator::getTemperature() const %{
   val=unit.Quantity(val, unit.kelvin)
%}

%pythonappend OpenMM::VariableLangevinIntegrator::getFriction() const %{
   val=unit.Quantity(val, 1/unit.picosecond)
%}

%pythonappend OpenMM::CustomGBForce::getCutoffDistance() const %{
   val=unit.Quantity(val, unit.nanometers)
%}

%pythonappend OpenMM::CustomGBForce::addTabulatedFunction(const std::string & name, TabulatedFunction * function) %{
   function.thisown=0
%}

%pythonappend OpenMM::AmoebaVdwForce::getParticleParameters(int particleIndex, int & parentIndex, double & sigma, double & epsilon, double & reductionFactor) const %{
   val[1]=unit.Quantity(val[1], unit.nanometer)
   val[2]=unit.Quantity(val[2], unit.kilojoule_per_mole)
%}

%pythonappend OpenMM::AmoebaVdwForce::getCutoff() const %{
   val=unit.Quantity(val, unit.nanometer)
%}

%pythonappend OpenMM::DrudeLangevinIntegrator::getTemperature() const %{
   val=unit.Quantity(val, unit.kelvin)
%}

%pythonappend OpenMM::DrudeLangevinIntegrator::getFriction() const %{
   val=unit.Quantity(val, 1/unit.picosecond)
%}

%pythonappend OpenMM::DrudeLangevinIntegrator::getDrudeTemperature() const %{
   val=unit.Quantity(val, unit.kelvin)
%}

%pythonappend OpenMM::DrudeLangevinIntegrator::getDrudeFriction() const %{
   val=unit.Quantity(val, 1/unit.picosecond)
%}

%pythonappend OpenMM::DrudeLangevinIntegrator::getMaxDrudeDistance() const %{
   val=unit.Quantity(val, unit.nanometer)
%}

%pythonappend OpenMM::NonbondedForce::getCutoffDistance() const %{
   val=unit.Quantity(val, unit.nanometers)
%}

%pythonappend OpenMM::NonbondedForce::getSwitchingDistance() const %{
   val=unit.Quantity(val, unit.nanometers)
%}

%pythonappend OpenMM::NonbondedForce::getPMEParameters(double & alpha, int & nx, int & ny, int & nz) const %{
   val[0]=unit.Quantity(val[0], 1/unit.nanometer)
%}

%pythonappend OpenMM::NonbondedForce::getParticleParameters(int index, double & charge, double & sigma, double & epsilon) const %{
   val[0]=unit.Quantity(val[0], unit.elementary_charge)
   val[1]=unit.Quantity(val[1], unit.nanometer)
   val[2]=unit.Quantity(val[2], unit.kilojoule_per_mole)
%}

%pythonappend OpenMM::NonbondedForce::getExceptionParameters(int index, int & particle1, int & particle2, double & chargeProd, double & sigma, double & epsilon) const %{
   val[2]=unit.Quantity(val[2], unit.elementary_charge*unit.elementary_charge)
   val[3]=unit.Quantity(val[3], unit.nanometer)
   val[4]=unit.Quantity(val[4], unit.kilojoule_per_mole)
%}

%pythonappend OpenMM::MonteCarloAnisotropicBarostat::getDefaultPressure() const %{
   val=unit.Quantity(val, unit.bar)
%}

%pythonappend OpenMM::MonteCarloAnisotropicBarostat::getTemperature() const %{
   val=unit.Quantity(val, unit.kelvin)
%}

%pythonappend OpenMM::AmoebaMultipoleForce::getCutoffDistance() const %{
   val=unit.Quantity(val, unit.nanometer)
%}

%pythonappend OpenMM::AmoebaMultipoleForce::getAEwald() const %{
   val=unit.Quantity(val, 1/unit.nanometer)
%}

%pythonappend OpenMM::AmoebaMultipoleForce::getMultipoleParameters(int index, double & charge, std::vector< double > & molecularDipole, std::vector< double > & molecularQuadrupole, int & axisType, int & multipoleAtomZ, int & multipoleAtomX, int & multipoleAtomY, double & thole, double & dampingFactor, double & polarity) const %{
   val[0]=unit.Quantity(val[0], unit.elementary_charge)
   val[1]=unit.Quantity(val[1], unit.elementary_charge*unit.nanometer)
   val[2]=unit.Quantity(val[2], unit.elementary_charge*unit.nanometer**2)
   val[9]=unit.Quantity(val[9], unit.nanometer**3)
%}

