Simulation
======================================

.. currentmodule:: simtk.openmm.app.simulation

.. autoclass:: Simulation

   
   .. automethod:: __init__

   
   .. rubric:: Methods

   .. autosummary::
   
      ~Simulation.__init__
      ~Simulation.loadCheckpoint
      ~Simulation.loadState
      ~Simulation.minimizeEnergy
      ~Simulation.runForClockTime
      ~Simulation.saveCheckpoint
      ~Simulation.saveState
      ~Simulation.step
   
   

   
   
   